{
  "configVersion": 2,
  "packages": [
    {
      "name": "archive",
      "rootUri": "file:///D:/FlutterDev3.3.8/flutter/.pub-cache/hosted/pub.dartlang.org/archive-3.3.8",
      "packageUri": "lib/",
      "languageVersion": "2.12"
    },
    {
      "name": "args",
      "rootUri": "file:///D:/FlutterDev3.3.8/flutter/.pub-cache/hosted/pub.dartlang.org/args-2.4.1",
      "packageUri": "lib/",
      "languageVersion": "2.18"
    },
    {
      "name": "async",
      "rootUri": "file:///D:/FlutterDev3.3.8/flutter/.pub-cache/hosted/pub.dartlang.org/async-2.9.0",
      "packageUri": "lib/",
      "languageVersion": "2.14"
    },
    {
      "name": "boolean_selector",
      "rootUri": "file:///D:/FlutterDev3.3.8/flutter/.pub-cache/hosted/pub.dartlang.org/boolean_selector-2.1.0",
      "packageUri": "lib/",
      "languageVersion": "2.12"
    },
    {
      "name": "characters",
      "rootUri": "file:///D:/FlutterDev3.3.8/flutter/.pub-cache/hosted/pub.dartlang.org/characters-1.2.1",
      "packageUri": "lib/",
      "languageVersion": "2.12"
    },
    {
      "name": "clock",
      "rootUri": "file:///D:/FlutterDev3.3.8/flutter/.pub-cache/hosted/pub.dartlang.org/clock-1.1.1",
      "packageUri": "lib/",
      "languageVersion": "2.12"
    },
    {
      "name": "collection",
      "rootUri": "file:///D:/FlutterDev3.3.8/flutter/.pub-cache/hosted/pub.dartlang.org/collection-1.16.0",
      "packageUri": "lib/",
      "languageVersion": "2.12"
    },
    {
      "name": "convert",
      "rootUri": "file:///D:/FlutterDev3.3.8/flutter/.pub-cache/hosted/pub.dartlang.org/convert-3.1.1",
      "packageUri": "lib/",
      "languageVersion": "2.18"
    },
    {
      "name": "crypto",
      "rootUri": "file:///D:/FlutterDev3.3.8/flutter/.pub-cache/hosted/pub.dartlang.org/crypto-3.0.2",
      "packageUri": "lib/",
      "languageVersion": "2.14"
    },
    {
      "name": "csslib",
      "rootUri": "file:///D:/FlutterDev3.3.8/flutter/.pub-cache/hosted/pub.dartlang.org/csslib-0.17.2",
      "packageUri": "lib/",
      "languageVersion": "2.12"
    },
    {
      "name": "cupertino_icons",
      "rootUri": "file:///D:/FlutterDev3.3.8/flutter/.pub-cache/hosted/pub.dartlang.org/cupertino_icons-1.0.5",
      "packageUri": "lib/",
      "languageVersion": "2.12"
    },
    {
      "name": "dart_ping",
      "rootUri": "file:///D:/FlutterDev3.3.8/flutter/.pub-cache/hosted/pub.dartlang.org/dart_ping-8.0.1",
      "packageUri": "lib/",
      "languageVersion": "2.17"
    },
    {
      "name": "dart_ping_ios",
      "rootUri": "file:///D:/FlutterDev3.3.8/flutter/.pub-cache/hosted/pub.dartlang.org/dart_ping_ios-3.0.0",
      "packageUri": "lib/",
      "languageVersion": "2.12"
    },
    {
      "name": "dbus",
      "rootUri": "file:///D:/FlutterDev3.3.8/flutter/.pub-cache/hosted/pub.dartlang.org/dbus-0.7.8",
      "packageUri": "lib/",
      "languageVersion": "2.15"
    },
    {
      "name": "enum_to_string",
      "rootUri": "file:///D:/FlutterDev3.3.8/flutter/.pub-cache/hosted/pub.dartlang.org/enum_to_string-2.0.1",
      "packageUri": "lib/",
      "languageVersion": "2.12"
    },
    {
      "name": "fake_async",
      "rootUri": "file:///D:/FlutterDev3.3.8/flutter/.pub-cache/hosted/pub.dartlang.org/fake_async-1.3.1",
      "packageUri": "lib/",
      "languageVersion": "2.12"
    },
    {
      "name": "ffi",
      "rootUri": "file:///D:/FlutterDev3.3.8/flutter/.pub-cache/hosted/pub.dartlang.org/ffi-2.0.2",
      "packageUri": "lib/",
      "languageVersion": "2.17"
    },
    {
      "name": "flutter",
      "rootUri": "file:///D:/FlutterDev3.3.8/flutter/packages/flutter",
      "packageUri": "lib/",
      "languageVersion": "2.17"
    },
    {
      "name": "flutter_icmp_ping",
      "rootUri": "file:///D:/FlutterDev3.3.8/flutter/.pub-cache/hosted/pub.dartlang.org/flutter_icmp_ping-3.1.2",
      "packageUri": "lib/",
      "languageVersion": "2.16"
    },
    {
      "name": "flutter_lints",
      "rootUri": "file:///D:/FlutterDev3.3.8/flutter/.pub-cache/hosted/pub.dartlang.org/flutter_lints-1.0.4",
      "packageUri": "lib/",
      "languageVersion": "2.12"
    },
    {
      "name": "flutter_pos_printer_platform",
      "rootUri": "../../",
      "packageUri": "lib/",
      "languageVersion": "2.18"
    },
    {
      "name": "flutter_test",
      "rootUri": "file:///D:/FlutterDev3.3.8/flutter/packages/flutter_test",
      "packageUri": "lib/",
      "languageVersion": "2.17"
    },
    {
      "name": "flutter_web_plugins",
      "rootUri": "file:///D:/FlutterDev3.3.8/flutter/packages/flutter_web_plugins",
      "packageUri": "lib/",
      "languageVersion": "2.17"
    },
    {
      "name": "gbk_codec",
      "rootUri": "file:///D:/FlutterDev3.3.8/flutter/.pub-cache/hosted/pub.dartlang.org/gbk_codec-0.4.0",
      "packageUri": "lib/",
      "languageVersion": "2.13"
    },
    {
      "name": "hex",
      "rootUri": "file:///D:/FlutterDev3.3.8/flutter/.pub-cache/hosted/pub.dartlang.org/hex-0.2.0",
      "packageUri": "lib/",
      "languageVersion": "2.12"
    },
    {
      "name": "html",
      "rootUri": "file:///D:/FlutterDev3.3.8/flutter/.pub-cache/hosted/pub.dartlang.org/html-0.15.3",
      "packageUri": "lib/",
      "languageVersion": "2.17"
    },
    {
      "name": "image",
      "rootUri": "file:///D:/FlutterDev3.3.8/flutter/.pub-cache/hosted/pub.dartlang.org/image-4.0.17",
      "packageUri": "lib/",
      "languageVersion": "2.15"
    },
    {
      "name": "js",
      "rootUri": "file:///D:/FlutterDev3.3.8/flutter/.pub-cache/hosted/pub.dartlang.org/js-0.6.4",
      "packageUri": "lib/",
      "languageVersion": "2.16"
    },
    {
      "name": "lints",
      "rootUri": "file:///D:/FlutterDev3.3.8/flutter/.pub-cache/hosted/pub.dartlang.org/lints-1.0.1",
      "packageUri": "lib/",
      "languageVersion": "2.12"
    },
    {
      "name": "matcher",
      "rootUri": "file:///D:/FlutterDev3.3.8/flutter/.pub-cache/hosted/pub.dartlang.org/matcher-0.12.12",
      "packageUri": "lib/",
      "languageVersion": "2.12"
    },
    {
      "name": "material_color_utilities",
      "rootUri": "file:///D:/FlutterDev3.3.8/flutter/.pub-cache/hosted/pub.dartlang.org/material_color_utilities-0.1.5",
      "packageUri": "lib/",
      "languageVersion": "2.13"
    },
    {
      "name": "meta",
      "rootUri": "file:///D:/FlutterDev3.3.8/flutter/.pub-cache/hosted/pub.dartlang.org/meta-1.8.0",
      "packageUri": "lib/",
      "languageVersion": "2.12"
    },
    {
      "name": "network_info_plus",
      "rootUri": "file:///D:/FlutterDev3.3.8/flutter/.pub-cache/hosted/pub.dartlang.org/network_info_plus-3.0.5",
      "packageUri": "lib/",
      "languageVersion": "2.12"
    },
    {
      "name": "network_info_plus_platform_interface",
      "rootUri": "file:///D:/FlutterDev3.3.8/flutter/.pub-cache/hosted/pub.dartlang.org/network_info_plus_platform_interface-1.1.3",
      "packageUri": "lib/",
      "languageVersion": "2.12"
    },
    {
      "name": "nm",
      "rootUri": "file:///D:/FlutterDev3.3.8/flutter/.pub-cache/hosted/pub.dartlang.org/nm-0.5.0",
      "packageUri": "lib/",
      "languageVersion": "2.12"
    },
    {
      "name": "path",
      "rootUri": "file:///D:/FlutterDev3.3.8/flutter/.pub-cache/hosted/pub.dartlang.org/path-1.8.2",
      "packageUri": "lib/",
      "languageVersion": "2.12"
    },
    {
      "name": "petitparser",
      "rootUri": "file:///D:/FlutterDev3.3.8/flutter/.pub-cache/hosted/pub.dartlang.org/petitparser-5.1.0",
      "packageUri": "lib/",
      "languageVersion": "2.18"
    },
    {
      "name": "ping_discover_network_forked",
      "rootUri": "file:///D:/FlutterDev3.3.8/flutter/.pub-cache/hosted/pub.dartlang.org/ping_discover_network_forked-0.0.1",
      "packageUri": "lib/",
      "languageVersion": "2.12"
    },
    {
      "name": "plugin_platform_interface",
      "rootUri": "file:///D:/FlutterDev3.3.8/flutter/.pub-cache/hosted/pub.dartlang.org/plugin_platform_interface-2.1.5",
      "packageUri": "lib/",
      "languageVersion": "2.18"
    },
    {
      "name": "pointycastle",
      "rootUri": "file:///D:/FlutterDev3.3.8/flutter/.pub-cache/hosted/pub.dartlang.org/pointycastle-3.7.3",
      "packageUri": "lib/",
      "languageVersion": "2.14"
    },
    {
      "name": "rxdart",
      "rootUri": "file:///D:/FlutterDev3.3.8/flutter/.pub-cache/hosted/pub.dartlang.org/rxdart-0.27.7",
      "packageUri": "lib/",
      "languageVersion": "2.12"
    },
    {
      "name": "sky_engine",
      "rootUri": "file:///D:/FlutterDev3.3.8/flutter/bin/cache/pkg/sky_engine",
      "packageUri": "lib/",
      "languageVersion": "2.12"
    },
    {
      "name": "source_span",
      "rootUri": "file:///D:/FlutterDev3.3.8/flutter/.pub-cache/hosted/pub.dartlang.org/source_span-1.9.0",
      "packageUri": "lib/",
      "languageVersion": "2.14"
    },
    {
      "name": "stack_trace",
      "rootUri": "file:///D:/FlutterDev3.3.8/flutter/.pub-cache/hosted/pub.dartlang.org/stack_trace-1.10.0",
      "packageUri": "lib/",
      "languageVersion": "2.12"
    },
    {
      "name": "stream_channel",
      "rootUri": "file:///D:/FlutterDev3.3.8/flutter/.pub-cache/hosted/pub.dartlang.org/stream_channel-2.1.0",
      "packageUri": "lib/",
      "languageVersion": "2.12"
    },
    {
      "name": "string_scanner",
      "rootUri": "file:///D:/FlutterDev3.3.8/flutter/.pub-cache/hosted/pub.dartlang.org/string_scanner-1.1.1",
      "packageUri": "lib/",
      "languageVersion": "2.12"
    },
    {
      "name": "term_glyph",
      "rootUri": "file:///D:/FlutterDev3.3.8/flutter/.pub-cache/hosted/pub.dartlang.org/term_glyph-1.2.1",
      "packageUri": "lib/",
      "languageVersion": "2.12"
    },
    {
      "name": "test_api",
      "rootUri": "file:///D:/FlutterDev3.3.8/flutter/.pub-cache/hosted/pub.dartlang.org/test_api-0.4.12",
      "packageUri": "lib/",
      "languageVersion": "2.12"
    },
    {
      "name": "typed_data",
      "rootUri": "file:///D:/FlutterDev3.3.8/flutter/.pub-cache/hosted/pub.dartlang.org/typed_data-1.3.2",
      "packageUri": "lib/",
      "languageVersion": "2.17"
    },
    {
      "name": "vector_math",
      "rootUri": "file:///D:/FlutterDev3.3.8/flutter/.pub-cache/hosted/pub.dartlang.org/vector_math-2.1.2",
      "packageUri": "lib/",
      "languageVersion": "2.14"
    },
    {
      "name": "xml",
      "rootUri": "file:///D:/FlutterDev3.3.8/flutter/.pub-cache/hosted/pub.dartlang.org/xml-6.1.0",
      "packageUri": "lib/",
      "languageVersion": "2.17"
    },
    {
      "name": "flutter_pos_printer_example",
      "rootUri": "../",
      "packageUri": "lib/",
      "languageVersion": "2.18"
    }
  ],
  "generated": "2023-09-10T08:37:42.507237Z",
  "generator": "pub",
  "generatorVersion": "2.18.4"
}
